dax_pmem.ko
dec_and_lock.ko
device_dax.ko
hid-hyperv.ko
hv_balloon.ko
hv_netvsc.ko
hv_sock.ko
hv_storvsc.ko
hv_utils.ko
hv_vmbus.ko
hyperv_fb.ko
hyperv-keyboard.ko
oprofile.ko
pci-hyperv.ko
uio_hv_generic.ko
virtio.ko
virtio_ring.ko
vmw_balloon.ko
xen-acpi-processor.ko
xen-blkfront.ko
xen-evtchn.ko
xenfs.ko
xen-kbdfront.ko
xen-netfront.ko
xen-privcmd.ko
xen_wdt.ko
